Account Type,Affects Gross,Name,Code,Opening Balance,Debit/Credit,Bank/Cash,Reconciliation,Notes
ledgers,null,CAJA GENERAL,11-05-05-0001</br></br></br>,0.00,0,0,0,CAJA GENERAL
ledgers,null,BANCOLOMBIA,11-10-05-0001</br></br></br>,0.00,0,0,0,BANCOLOMBIA
ledgers,null,BANCO BOGOTA,11-10-05-0002</br></br></br>,0.00,0,0,0,BANCO BOGOTA
ledgers,null,BANCO BBVA,11-10-05-0003</br></br></br>,0.00,0,0,0,BANCO BBVA
ledgers,null,BANCO DAVIVIENDA,11-10-05-0004</br></br></br>,0.00,0,0,0,BANCO DAVIVIENDA
ledgers,null,FINANCIERA COMULTRASAN,11-20-15-0001</br></br></br>,0.00,0,0,0,FINANCIERA COMULTRASAN
ledgers,null,ACCIONES EMPRESA 1,12-05-05-0001</br></br></br>,0.00,0,0,0,ACCIONES EMPRESA 1
ledgers,null,NACIONALES,13-05-05-0001</br></br></br>,0.00,0,0,0,NACIONALES
ledgers,null,A PROVEEDORES,13-30-05-0001</br></br></br>,0.00,0,0,0,A PROVEEDORES
ledgers,null,A TRABAJADORES,13-30-15-0001</br></br></br>,0.00,0,0,0,A TRABAJADORES
ledgers,null,OTROS,13-30-95-0001</br></br></br>,0.00,0,0,0,OTROS
ledgers,null,ANTICIPO DE IMPUESTOS DE RENTA Y COMPLEMENTARIOS,13-55-05-0001</br></br></br>,0.00,0,0,0,ANTICIPO DE IMPUESTOS DE RENTA Y COMPLEMENTARIOS
ledgers,null,ANTICIPO DE IMPUESTOS DE INDUSTRIA Y COMERCIO,13-55-10-0001</br></br></br>,0.00,0,0,0,ANTICIPO DE IMPUESTOS DE INDUSTRIA Y COMERCIO
ledgers,null,RETENCION EN LA FUENTE 2.5,13-55-15-0001</br></br></br>,0.00,0,0,0,RETENCION EN LA FUENTE 2.5
ledgers,null,RETENCION EN LA FUENTE 1.5,13-55-15-0002</br></br></br>,0.00,0,0,0,RETENCION EN LA FUENTE 1.5
ledgers,null,RETENCION EN LA FUENTE 3.5,13-55-15-0003</br></br></br>,0.00,0,0,0,RETENCION EN LA FUENTE 3.5
ledgers,null,IMPUESTO A LAS VENTAS RETENIDO ,13-55-17-0001</br></br></br>,0.00,0,0,0,IMPUESTO A LAS VENTAS RETENIDO 
ledgers,null,IMPUESTO DE INDUSTRIA Y COMERCIO RET ,13-55-18-0001</br></br></br>,0.00,0,0,0,IMPUESTO DE INDUSTRIA Y COMERCIO RET 
ledgers,null,OTROS,13-65-95-0001</br></br></br>,0.00,0,0,0,OTROS
ledgers,null,CON GARANTIA REAL,13-70-05-0001</br></br></br>,0.00,0,0,0,CON GARANTIA REAL
ledgers,null,CON GARANTIA PERSONAL,13-70-10-0001</br></br></br>,0.00,0,0,0,CON GARANTIA PERSONAL
ledgers,null,CUENTAS POR COBRAR DE TERCEROS,13-80-20-0001</br></br></br>,0.00,0,0,0,CUENTAS POR COBRAR DE TERCEROS
ledgers,null,PAGOS POR CUENTA DE TERCEROS,13-80-25-0001</br></br></br>,0.00,0,0,0,PAGOS POR CUENTA DE TERCEROS
ledgers,null,OTROS,13-80-95-0001</br></br></br>,0.00,0,0,0,OTROS
ledgers,null,COSTOS DE MERCANCIA EXCENTAS,14-35-05-0001</br></br></br>,0.00,0,0,0,COSTOS DE MERCANCIA EXCENTAS
ledgers,null,COSTOS DE MERCANCIA EXCLUIDAS,14-35-05-0002</br></br></br>,0.00,0,0,0,COSTOS DE MERCANCIA EXCLUIDAS
ledgers,null,COSTOS DE MERCANCIA IVA 19%,14-35-05-0003</br></br></br>,0.00,0,0,0,COSTOS DE MERCANCIA IVA 19%
ledgers,null,COSTOS DE MERCANCIA IVA 5%,14-35-05-0004</br></br></br>,0.00,0,0,0,COSTOS DE MERCANCIA IVA 5%
ledgers,null,URBANOS,15-04-05-0001</br></br></br>,0.00,0,0,0,URBANOS
ledgers,null,RURALES,15-04-10-0001</br></br></br>,0.00,0,0,0,RURALES
ledgers,null,EDIFICIOS,15-16-05-0001</br></br></br>,0.00,0,0,0,EDIFICIOS
ledgers,null,MAQUINARIA Y EQUIPO,15-20-01-0001</br></br></br>,0.00,0,0,0,MAQUINARIA Y EQUIPO
ledgers,null,MUEBLES Y ENSERES,15-24-05-0001</br></br></br>,0.00,0,0,0,MUEBLES Y ENSERES
ledgers,null,EQUIPOS,15-24-10-0001</br></br></br>,0.00,0,0,0,EQUIPOS
ledgers,null,OTROS,15-24-95-0001</br></br></br>,0.00,0,0,0,OTROS
ledgers,null,EQUIPOS DE PROCESAMIENTO DE DATOS,15-28-05-0001</br></br></br>,0.00,0,0,0,EQUIPOS DE PROCESAMIENTO DE DATOS
ledgers,null,EQUIPOS DE TELECOMUNICACIONES,15-28-10-0001</br></br></br>,0.00,0,0,0,EQUIPOS DE TELECOMUNICACIONES
ledgers,null,EQUIPOS DE RADIO,15-28-15-0001</br></br></br>,0.00,0,0,0,EQUIPOS DE RADIO
ledgers,null,LINEAS TELEFONICAS,15-28-25-0001</br></br></br>,0.00,0,0,0,LINEAS TELEFONICAS
ledgers,null,AUTOS CAMIONETAS Y CAMPEROS,15-40-05-0001</br></br></br>,0.00,0,0,0,AUTOS CAMIONETAS Y CAMPEROS
ledgers,null,CAMIONES VOLQUETAS Y FURGONES,15-40-08-0001</br></br></br>,0.00,0,0,0,CAMIONES VOLQUETAS Y FURGONES
ledgers,null,LICENCIAS,16-35-01-0001</br></br></br>,0.00,0,0,0,LICENCIAS
ledgers,null,SEGUROS Y FIANZAS,17-05-20-0001</br></br></br>,0.00,0,0,0,SEGUROS Y FIANZAS
ledgers,null,ARRENDAMIENTOS,17-05-25-0001</br></br></br>,0.00,0,0,0,ARRENDAMIENTOS
ledgers,null,PROGRAMAS PARA COMPUTADOR (SOFTWARE),17-10-16-0001</br></br></br>,0.00,0,0,0,PROGRAMAS PARA COMPUTADOR (SOFTWARE)
ledgers,null,LICENCIAS,17-10-40-0001</br></br></br>,0.00,0,0,0,LICENCIAS
ledgers,null,PUBLICIDAD, PROPAGANDA Y PROMOCION,17-10-44-0001</br></br></br>,0.00,0,0,0,PUBLICIDAD, PROPAGANDA Y PROMOCION
ledgers,null,ACCIONES,19-05-05-0001</br></br></br>,0.00,0,0,0,ACCIONES
ledgers,null,SOBREGIROS,21-05-05-0001</br></br></br>,0.00,0,0,0,SOBREGIROS
ledgers,null,OBLIGACIONES FINANCIERAS,21-05-10-0001</br></br></br>,0.00,0,0,0,OBLIGACIONES FINANCIERAS
ledgers,null,OBLIGACION 1,21-05-10-0002</br></br></br>,0.00,0,0,0,OBLIGACION 1
ledgers,null,OBLIGACION 2,21-05-10-0003</br></br></br>,0.00,0,0,0,OBLIGACION 2
ledgers,null,OBLIGACION 3,21-05-10-0004</br></br></br>,0.00,0,0,0,OBLIGACION 3
ledgers,null,TARJETAS DE CREDITO VISA,21-05-15-0001</br></br></br>,0.00,0,0,0,TARJETAS DE CREDITO VISA
ledgers,null,TARJETA DE CREDITO MASTERCAD,21-05-15-0002</br></br></br>,0.00,0,0,0,TARJETA DE CREDITO MASTERCAD
ledgers,null,BBVA T. CR 41354,21-05-15-0003</br></br></br>,0.00,0,0,0,BBVA T. CR 41354
ledgers,null,ACEPTACIONES BANCARIAS,21-05-20-0001</br></br></br>,0.00,0,0,0,ACEPTACIONES BANCARIAS
ledgers,null,PARTICULARES,21-95-05-0001</br></br></br>,0.00,0,0,0,PARTICULARES
ledgers,null,PROVEEDORES NACIONALES,22-05-01-0001</br></br></br>,0.00,0,0,0,PROVEEDORES NACIONALES
ledgers,null,EMPRESA 1,23-05-01-0001</br></br></br>,0.00,0,0,0,EMPRESA 1
ledgers,null,SALARIOS Y PAGOS LABORALES,23-65-05-0001</br></br></br>,0.00,0,0,0,SALARIOS Y PAGOS LABORALES
ledgers,null,DIVIDENDOS Y/O PARTICIPACIONES,23-65-10-0001</br></br></br>,0.00,0,0,0,DIVIDENDOS Y/O PARTICIPACIONES
ledgers,null,HONORARIOS,23-65-15-0001</br></br></br>,0.00,0,0,0,HONORARIOS
ledgers,null,COMISIONES,23-65-20-0001</br></br></br>,0.00,0,0,0,COMISIONES
ledgers,null,FLETES,23-65-25-0001</br></br></br>,0.00,0,0,0,FLETES
ledgers,null,SERVICIOS 4%,23-65-25-0002</br></br></br>,0.00,0,0,0,SERVICIOS 4%
ledgers,null,SERVICIOS 6%,23-65-25-0003</br></br></br>,0.00,0,0,0,SERVICIOS 6%
ledgers,null,BIENES MUEBLES,23-65-30-0001</br></br></br>,0.00,0,0,0,BIENES MUEBLES
ledgers,null,BIENES INMUEBLES,23-65-30-0002</br></br></br>,0.00,0,0,0,BIENES INMUEBLES
ledgers,null,RET. COMPRAS EN GENERAL ,23-65-40-0001</br></br></br>,0.00,0,0,0,RET. COMPRAS EN GENERAL 
ledgers,null,APORTES E.P.S,23-70-05-0001</br></br></br>,0.00,0,0,0,APORTES E.P.S
ledgers,null,APORTES A ADMINISTRADORAS DE RIESGO PROFESIONALES, ARP,23-70-06-0001</br></br></br>,0.00,0,0,0,APORTES A ADMINISTRADORAS DE RIESGO PROFESIONALES, ARP
ledgers,null,PENSION,23-70-07-0001</br></br></br>,0.00,0,0,0,PENSION
ledgers,null,APORTES AL I.C.B.F. SENA Y CAJAS DE COMPENSACION,23-70-10-0001</br></br></br>,0.00,0,0,0,APORTES AL I.C.B.F. SENA Y CAJAS DE COMPENSACION
ledgers,null,APORTES AL F.I.C.,23-70-15-0001</br></br></br>,0.00,0,0,0,APORTES AL F.I.C.
ledgers,null,EMBARGOS JUDICIALES,23-70-25-0001</br></br></br>,0.00,0,0,0,EMBARGOS JUDICIALES
ledgers,null,LIBRANZAS,23-70-30-0001</br></br></br>,0.00,0,0,0,LIBRANZAS
ledgers,null,SINDICATOS,23-70-35-0001</br></br></br>,0.00,0,0,0,SINDICATOS
ledgers,null,COOPERATIVAS,23-70-40-0001</br></br></br>,0.00,0,0,0,COOPERATIVAS
ledgers,null,FONDOS,23-70-45-0001</br></br></br>,0.00,0,0,0,FONDOS
ledgers,null,OTROS,23-70-95-0001</br></br></br>,0.00,0,0,0,OTROS
ledgers,null,OTROS,23-80-95-0001</br></br></br>,0.00,0,0,0,OTROS
ledgers,null,VIGENCIA FISCAL CORRIENTE,24-04-05-0001</br></br></br>,0.00,0,0,0,VIGENCIA FISCAL CORRIENTE
ledgers,null,VIGENCIAS FISCALES ANTERIORES,24-04-10-0001</br></br></br>,0.00,0,0,0,VIGENCIAS FISCALES ANTERIORES
ledgers,null,IVA GENERADO 0%,24-08-01-0001</br></br></br>,0.00,0,0,0,IVA GENERADO 0%
ledgers,null,IVA GENERADO 19%,24-08-01-0002</br></br></br>,0.00,0,0,0,IVA GENERADO 19%
ledgers,null,IVA GENERADO 5%,24-08-01-0003</br></br></br>,0.00,0,0,0,IVA GENERADO 5%
ledgers,null,IVA DESCONTABLE 0%,24-08-02-0001</br></br></br>,0.00,0,0,0,IVA DESCONTABLE 0%
ledgers,null,IVA DESCONTABLE 19%,24-08-02-0002</br></br></br>,0.00,0,0,0,IVA DESCONTABLE 19%
ledgers,null,IVA DESCONTABLE 5%,24-08-02-0003</br></br></br>,0.00,0,0,0,IVA DESCONTABLE 5%
ledgers,null,IVA BONI DESCO 19%,24-08-02-0004</br></br></br>,0.00,0,0,0,IVA BONI DESCO 19%
ledgers,null,IVA BONI DESCO 5%,24-08-02-0005</br></br></br>,0.00,0,0,0,IVA BONI DESCO 5%
ledgers,null,IVA PAGADO                           ,24-08-25-0001</br></br></br>,0.00,0,0,0,IVA PAGADO                           
ledgers,null,VIGENCIA FISCAL CORRIENTE,24-12-05-0001</br></br></br>,0.00,0,0,0,VIGENCIA FISCAL CORRIENTE
ledgers,null,VIGENCIAS FISCALES ANTERIORES,24-12-10-0001</br></br></br>,0.00,0,0,0,VIGENCIAS FISCALES ANTERIORES
ledgers,null,SALARIOS POR PAGAR,25-05-05-0001</br></br></br>,0.00,0,0,0,SALARIOS POR PAGAR
ledgers,null,Cesantias por pagar,25-05-05-0005</br></br></br>,0.00,0,0,0,Cesantias por pagar
ledgers,null,Cesantias por pagar,25-10-10-0005</br></br></br>,0.00,0,0,0,Cesantias por pagar
ledgers,null,CESANTIAS,26-10-05-0001</br></br></br>,0.00,0,0,0,CESANTIAS
ledgers,null,INTERESES SOBRE CESANTIAS,26-10-10-0001</br></br></br>,0.00,0,0,0,INTERESES SOBRE CESANTIAS
ledgers,null,VACACIONES,26-10-15-0001</br></br></br>,0.00,0,0,0,VACACIONES
ledgers,null,PRIMA DE SERVICIOS,26-10-20-0001</br></br></br>,0.00,0,0,0,PRIMA DE SERVICIOS
ledgers,null,PRESTACIONES EXTRALEGALES,26-10-25-0001</br></br></br>,0.00,0,0,0,PRESTACIONES EXTRALEGALES
ledgers,null,VIATICOS,26-10-30-0001</br></br></br>,0.00,0,0,0,VIATICOS
ledgers,null,OTRAS,26-10-95-0001</br></br></br>,0.00,0,0,0,OTRAS
ledgers,null,SALARIOS POR PAGAR,26-10-95-0002</br></br></br>,0.00,0,0,0,SALARIOS POR PAGAR
ledgers,null,DE RENTA Y COMPLEMENTARIOS,26-15-05-0001</br></br></br>,0.00,0,0,0,DE RENTA Y COMPLEMENTARIOS
ledgers,null,DE INDUSTRIA Y COMERCIO,26-15-10-0001</br></br></br>,0.00,0,0,0,DE INDUSTRIA Y COMERCIO
ledgers,null,TASA POR UTILIZACION DE PUERTOS,26-15-15-0001</br></br></br>,0.00,0,0,0,TASA POR UTILIZACION DE PUERTOS
ledgers,null,DE VEHICULOS,26-15-20-0001</br></br></br>,0.00,0,0,0,DE VEHICULOS
ledgers,null,DE HIDROCARBUROS Y MINAS,26-15-25-0001</br></br></br>,0.00,0,0,0,DE HIDROCARBUROS Y MINAS
ledgers,null,OTROS,26-15-95-0001</br></br></br>,0.00,0,0,0,OTROS
ledgers,null,CAPITAL DE PERSONAS NATURALES,31-30-01-0001</br></br></br>,0.00,0,0,0,CAPITAL DE PERSONAS NATURALES
ledgers,null,UTILIDAD DEL EJERCICIO,36-05-05-0001</br></br></br>,0.00,0,0,0,UTILIDAD DEL EJERCICIO
ledgers,null,PERDIDA DEL EJERCICIO,36-10-05-0001</br></br></br>,0.00,0,0,0,PERDIDA DEL EJERCICIO
ledgers,null,PERDIDAS ACUMULADAS,37-10-01-0001</br></br></br>,0.00,0,0,0,PERDIDAS ACUMULADAS
ledgers,null,EMPRESA,38-05-01-0001</br></br></br>,0.00,0,0,0,EMPRESA
ledgers,null,COSTOS DE MERCANCIA EXCENTAS,41-35-20-0001</br></br></br>,0.00,0,0,0,COSTOS DE MERCANCIA EXCENTAS
ledgers,null,COSTOS DE MERCANCIA EXCLUIDAS,41-35-20-0002</br></br></br>,0.00,0,0,0,COSTOS DE MERCANCIA EXCLUIDAS
ledgers,null,COSTOS DE MERCANCIA IVA 19%,41-35-20-0003</br></br></br>,0.00,0,0,0,COSTOS DE MERCANCIA IVA 19%
ledgers,null,COSTOS DE MERCANCIA IVA 5%,41-35-20-0004</br></br></br>,0.00,0,0,0,COSTOS DE MERCANCIA IVA 5%
ledgers,null,SERVICIO DE TRANSPORTE POR CARRETERA,41-45-05-0001</br></br></br>,0.00,0,0,0,SERVICIO DE TRANSPORTE POR CARRETERA
ledgers,null,ARRENDAMIENTOS DE BIENES INMUEBLES,41-55-05-0001</br></br></br>,0.00,0,0,0,ARRENDAMIENTOS DE BIENES INMUEBLES
ledgers,null,COSTOS DE MERCANCIA EXCENTAS,41-75-01-0001</br></br></br>,0.00,0,0,0,COSTOS DE MERCANCIA EXCENTAS
ledgers,null,COSTOS DE MERCANCIA EXCLUIDAS,41-75-01-0002</br></br></br>,0.00,0,0,0,COSTOS DE MERCANCIA EXCLUIDAS
ledgers,null,COSTOS DE MERCANCIA IVA 19%,41-75-01-0003</br></br></br>,0.00,0,0,0,COSTOS DE MERCANCIA IVA 19%
ledgers,null,COSTOS DE MERCANCIA IVA 5%,41-75-01-0004</br></br></br>,0.00,0,0,0,COSTOS DE MERCANCIA IVA 5%
ledgers,null,DESCUENTOS COMERCIALES CONDICIONADOS,42-10-40-0001</br></br></br>,0.00,0,0,0,DESCUENTOS COMERCIALES CONDICIONADOS
ledgers,null,DESCUENTOS BANCARIOS,42-10-45-0001</br></br></br>,0.00,0,0,0,DESCUENTOS BANCARIOS
ledgers,null,OTROS,42-10-95-0001</br></br></br>,0.00,0,0,0,OTROS
ledgers,null,BODEGA PRINCIPAL,42-20-10-0001</br></br></br>,0.00,0,0,0,BODEGA PRINCIPAL
ledgers,null,SALARIO INTEGRAL,51-05-03-0001</br></br></br>,0.00,0,0,0,SALARIO INTEGRAL
ledgers,null,SUELDOS,51-05-06-0001</br></br></br>,0.00,0,0,0,SUELDOS
ledgers,null,JORNALES,51-05-12-0001</br></br></br>,0.00,0,0,0,JORNALES
ledgers,null,HORAS EXTRAS Y RECARGOS,51-05-15-0001</br></br></br>,0.00,0,0,0,HORAS EXTRAS Y RECARGOS
ledgers,null,RECARGO NOCTURNO,51-05-15-0002</br></br></br>,0.00,0,0,0,RECARGO NOCTURNO
ledgers,null,DOMINICALES Y FESTIVOS,51-05-15-0003</br></br></br>,0.00,0,0,0,DOMINICALES Y FESTIVOS
ledgers,null,COMISIONES,51-05-18-0001</br></br></br>,0.00,0,0,0,COMISIONES
ledgers,null,VIATICOS,51-05-21-0001</br></br></br>,0.00,0,0,0,VIATICOS
ledgers,null,INCAPACIDADES,51-05-24-0001</br></br></br>,0.00,0,0,0,INCAPACIDADES
ledgers,null,AUXILIO DE TRANSPORTE,51-05-27-0001</br></br></br>,0.00,0,0,0,AUXILIO DE TRANSPORTE
ledgers,null,CESANTIAS,51-05-30-0001</br></br></br>,0.00,0,0,0,CESANTIAS
ledgers,null,INTERESES SOBRE CESANTIAS,51-05-33-0001</br></br></br>,0.00,0,0,0,INTERESES SOBRE CESANTIAS
ledgers,null,PRIMA DE SERVICIOS,51-05-36-0001</br></br></br>,0.00,0,0,0,PRIMA DE SERVICIOS
ledgers,null,VACACIONES,51-05-39-0001</br></br></br>,0.00,0,0,0,VACACIONES
ledgers,null,PRIMAS EXTRALEGALES,51-05-42-0001</br></br></br>,0.00,0,0,0,PRIMAS EXTRALEGALES
ledgers,null,AUXILIOS,51-05-45-0001</br></br></br>,0.00,0,0,0,AUXILIOS
ledgers,null,BONIFICACIONES,51-05-48-0001</br></br></br>,0.00,0,0,0,BONIFICACIONES
ledgers,null,DOTACION Y SUMINISTRO A TRABAJADORES,51-05-51-0001</br></br></br>,0.00,0,0,0,DOTACION Y SUMINISTRO A TRABAJADORES
ledgers,null,SEGUROS ,51-05-54-0001</br></br></br>,0.00,0,0,0,SEGUROS 
ledgers,null,CUOTAS PARTES PENSIONES DE JUBILACION,51-05-57-0001</br></br></br>,0.00,0,0,0,CUOTAS PARTES PENSIONES DE JUBILACION
ledgers,null,AMORTIZACION CALCULO ACTUARIAL PENSIONES DE JUBILACION,51-05-58-0001</br></br></br>,0.00,0,0,0,AMORTIZACION CALCULO ACTUARIAL PENSIONES DE JUBILACION
ledgers,null,PENSIONES DE JUBILACION,51-05-59-0001</br></br></br>,0.00,0,0,0,PENSIONES DE JUBILACION
ledgers,null,INDEMNIZACIONES LABORALES,51-05-60-0001</br></br></br>,0.00,0,0,0,INDEMNIZACIONES LABORALES
ledgers,null,AMORTIZACION BONOS PENSIONALES,51-05-61-0001</br></br></br>,0.00,0,0,0,AMORTIZACION BONOS PENSIONALES
ledgers,null,AMORTIZACION TITULOS PENSIONALES,51-05-62-0001</br></br></br>,0.00,0,0,0,AMORTIZACION TITULOS PENSIONALES
ledgers,null,CAPACITACION AL PERSONAL,51-05-63-0001</br></br></br>,0.00,0,0,0,CAPACITACION AL PERSONAL
ledgers,null,GASTOS DEPORTIVOS Y DE RECREACION,51-05-66-0001</br></br></br>,0.00,0,0,0,GASTOS DEPORTIVOS Y DE RECREACION
ledgers,null,APORTES A ADMINISTRADORAS DE RIESGOS PROFESIONALES , ARP,51-05-68-0001</br></br></br>,0.00,0,0,0,APORTES A ADMINISTRADORAS DE RIESGOS PROFESIONALES , ARP
ledgers,null,APORTES SISTEMA SALUD,51-05-69-0001</br></br></br>,0.00,0,0,0,APORTES SISTEMA SALUD
ledgers,null,APORTES A FONDOS DE PENSIONES Y/O CESANTIAS,51-05-70-0001</br></br></br>,0.00,0,0,0,APORTES A FONDOS DE PENSIONES Y/O CESANTIAS
ledgers,null,APORTES CAJAS DE COMPENSACION FAMILIAR,51-05-72-0001</br></br></br>,0.00,0,0,0,APORTES CAJAS DE COMPENSACION FAMILIAR
ledgers,null,APORTES I.C.B.F.,51-05-75-0001</br></br></br>,0.00,0,0,0,APORTES I.C.B.F.
ledgers,null,SENA,51-05-78-0001</br></br></br>,0.00,0,0,0,SENA
ledgers,null,APORTES SINDICALES,51-05-81-0001</br></br></br>,0.00,0,0,0,APORTES SINDICALES
ledgers,null,GASTOS MEDICOS Y DROGAS,51-05-84-0001</br></br></br>,0.00,0,0,0,GASTOS MEDICOS Y DROGAS
ledgers,null,OTROS,51-05-95-0001</br></br></br>,0.00,0,0,0,OTROS
ledgers,null,JUNTA DIRECTIVA,51-10-05-0001</br></br></br>,0.00,0,0,0,JUNTA DIRECTIVA
ledgers,null,REVISORIA FISCAL,51-10-10-0001</br></br></br>,0.00,0,0,0,REVISORIA FISCAL
ledgers,null,AUDITORIA EXTERNA,51-10-15-0001</br></br></br>,0.00,0,0,0,AUDITORIA EXTERNA
ledgers,null,AVALUOS,51-10-20-0001</br></br></br>,0.00,0,0,0,AVALUOS
ledgers,null,ASESORIA JURIDICA,51-10-25-0001</br></br></br>,0.00,0,0,0,ASESORIA JURIDICA
ledgers,null,ASESORIA FINANCIERA,51-10-30-0001</br></br></br>,0.00,0,0,0,ASESORIA FINANCIERA
ledgers,null,ASESORIA TECNICA,51-10-35-0001</br></br></br>,0.00,0,0,0,ASESORIA TECNICA
ledgers,null,OTROS,51-10-95-0001</br></br></br>,0.00,0,0,0,OTROS
ledgers,null,INDUSTRIA Y COMERCIO,51-15-05-0001</br></br></br>,0.00,0,0,0,INDUSTRIA Y COMERCIO
ledgers,null,DE TIMBRES,51-15-10-0001</br></br></br>,0.00,0,0,0,DE TIMBRES
ledgers,null,DE VEHICULOS,51-15-40-0001</br></br></br>,0.00,0,0,0,DE VEHICULOS
ledgers,null,CUOTAS DE FOMENTO,51-15-50-0001</br></br></br>,0.00,0,0,0,CUOTAS DE FOMENTO
ledgers,null,TERRENOS,51-20-05-0001</br></br></br>,0.00,0,0,0,TERRENOS
ledgers,null,CONSTRUCCIONES Y EDIFICACIONES,51-20-10-0001</br></br></br>,0.00,0,0,0,CONSTRUCCIONES Y EDIFICACIONES
ledgers,null,OTROS,51-20-95-0001</br></br></br>,0.00,0,0,0,OTROS
ledgers,null,MANEJO,51-30-05-0001</br></br></br>,0.00,0,0,0,MANEJO
ledgers,null,CUMPLIMIENTO,51-30-10-0001</br></br></br>,0.00,0,0,0,CUMPLIMIENTO
ledgers,null,INCENDIO,51-30-25-0001</br></br></br>,0.00,0,0,0,INCENDIO
ledgers,null,TERREMOTO,51-30-30-0001</br></br></br>,0.00,0,0,0,TERREMOTO
ledgers,null,SUSTRACCION Y HURTO,51-30-35-0001</br></br></br>,0.00,0,0,0,SUSTRACCION Y HURTO
ledgers,null,FLOTA Y EQUIPO DE TRANSPORTE,51-30-40-0001</br></br></br>,0.00,0,0,0,FLOTA Y EQUIPO DE TRANSPORTE
ledgers,null,ASEO Y VIGILANCIA,51-35-05-0001</br></br></br>,0.00,0,0,0,ASEO Y VIGILANCIA
ledgers,null,TEMPORALES,51-35-10-0001</br></br></br>,0.00,0,0,0,TEMPORALES
ledgers,null,ASISTENCIA TECNICA,51-35-15-0001</br></br></br>,0.00,0,0,0,ASISTENCIA TECNICA
ledgers,null,PROCESAMIENTO ELECTRONICO DE DATOS,51-35-20-0001</br></br></br>,0.00,0,0,0,PROCESAMIENTO ELECTRONICO DE DATOS
ledgers,null,ACUEDUCTO Y ALCANTARILLADO,51-35-25-0001</br></br></br>,0.00,0,0,0,ACUEDUCTO Y ALCANTARILLADO
ledgers,null,ENERGIA ELECTRICA,51-35-30-0001</br></br></br>,0.00,0,0,0,ENERGIA ELECTRICA
ledgers,null,TELEFONO,51-35-35-0001</br></br></br>,0.00,0,0,0,TELEFONO
ledgers,null,CORREO, PORTES Y TELEGRAMAS,51-35-40-0001</br></br></br>,0.00,0,0,0,CORREO, PORTES Y TELEGRAMAS
ledgers,null,FAX Y TELEX,51-35-45-0001</br></br></br>,0.00,0,0,0,FAX Y TELEX
ledgers,null,TRANSPORTE FLETES Y ACARREOS,51-35-50-0001</br></br></br>,0.00,0,0,0,TRANSPORTE FLETES Y ACARREOS
ledgers,null,GAS,51-35-55-0001</br></br></br>,0.00,0,0,0,GAS
ledgers,null,OTROS,51-35-95-0001</br></br></br>,0.00,0,0,0,OTROS
ledgers,null,NOTARIALES,51-40-05-0001</br></br></br>,0.00,0,0,0,NOTARIALES
ledgers,null,REGISTRO MERCANTIL,51-40-10-0001</br></br></br>,0.00,0,0,0,REGISTRO MERCANTIL
ledgers,null,TRAMITES Y LICENCIAS,51-40-15-0001</br></br></br>,0.00,0,0,0,TRAMITES Y LICENCIAS
ledgers,null,ADUANEROS,51-40-20-0001</br></br></br>,0.00,0,0,0,ADUANEROS
ledgers,null,CONSULARES,51-40-25-0001</br></br></br>,0.00,0,0,0,CONSULARES
ledgers,null,OTROS,51-40-95-0001</br></br></br>,0.00,0,0,0,OTROS
ledgers,null,TERRENOS,51-45-05-0001</br></br></br>,0.00,0,0,0,TERRENOS
ledgers,null,CONSTRUCCIONES Y EDIFICACIONES,51-45-10-0001</br></br></br>,0.00,0,0,0,CONSTRUCCIONES Y EDIFICACIONES
ledgers,null,MAQUINARIA Y EQUIPO,51-45-15-0001</br></br></br>,0.00,0,0,0,MAQUINARIA Y EQUIPO
ledgers,null,EQUIPO DE OFICINA,51-45-20-0001</br></br></br>,0.00,0,0,0,EQUIPO DE OFICINA
ledgers,null,EQUIPO DE COMPUTACION Y COMUNICACION,51-45-25-0001</br></br></br>,0.00,0,0,0,EQUIPO DE COMPUTACION Y COMUNICACION
ledgers,null,FLOTA Y EQUIPO DE TRANSPORTE,51-45-40-0001</br></br></br>,0.00,0,0,0,FLOTA Y EQUIPO DE TRANSPORTE
ledgers,null,INSTALACIONES ELECTRICAS,51-50-05-0001</br></br></br>,0.00,0,0,0,INSTALACIONES ELECTRICAS
ledgers,null,REPARACIONES LOCATIVAS,51-50-15-0001</br></br></br>,0.00,0,0,0,REPARACIONES LOCATIVAS
ledgers,null,OTROS,51-50-95-0001</br></br></br>,0.00,0,0,0,OTROS
ledgers,null,ALOJAMIENTO Y MANUTENCION,51-55-05-0001</br></br></br>,0.00,0,0,0,ALOJAMIENTO Y MANUTENCION
ledgers,null,PASAJES FLUVIALES Y/O MARITIMOS,51-55-10-0001</br></br></br>,0.00,0,0,0,PASAJES FLUVIALES Y/O MARITIMOS
ledgers,null,PASAJES AEREOS,51-55-15-0001</br></br></br>,0.00,0,0,0,PASAJES AEREOS
ledgers,null,PASAJES TERRESTRES,51-55-20-0001</br></br></br>,0.00,0,0,0,PASAJES TERRESTRES
ledgers,null,OTROS,51-55-95-0001</br></br></br>,0.00,0,0,0,OTROS
ledgers,null,COMISIONES,51-95-05-0001</br></br></br>,0.00,0,0,0,COMISIONES
ledgers,null,LIBROS, SUSCRIPCIONES, PERIODICOS Y REVISTAS,51-95-10-0001</br></br></br>,0.00,0,0,0,LIBROS, SUSCRIPCIONES, PERIODICOS Y REVISTAS
ledgers,null,MUSICA AMBIENTAL,51-95-15-0001</br></br></br>,0.00,0,0,0,MUSICA AMBIENTAL
ledgers,null,GASTOS DE REPRESENTACION Y RELACIONES PUBLICAS,51-95-20-0001</br></br></br>,0.00,0,0,0,GASTOS DE REPRESENTACION Y RELACIONES PUBLICAS
ledgers,null,ELEMENTOS DE ASEO Y CAFETERIA,51-95-25-0001</br></br></br>,0.00,0,0,0,ELEMENTOS DE ASEO Y CAFETERIA
ledgers,null,UTILES, PAPELERIA Y FOTOCOPIAS,51-95-30-0001</br></br></br>,0.00,0,0,0,UTILES, PAPELERIA Y FOTOCOPIAS
ledgers,null,COMBUSTIBLES Y LUBRICANTES,51-95-35-0001</br></br></br>,0.00,0,0,0,COMBUSTIBLES Y LUBRICANTES
ledgers,null,ENVASES Y EMPAQUES,51-95-40-0001</br></br></br>,0.00,0,0,0,ENVASES Y EMPAQUES
ledgers,null,TAXIS Y BUSES,51-95-45-0001</br></br></br>,0.00,0,0,0,TAXIS Y BUSES
ledgers,null,OTROS,51-95-95-0001</br></br></br>,0.00,0,0,0,OTROS
ledgers,null,GASTOS BANCARIOS,53-05-05-0001</br></br></br>,0.00,0,0,0,GASTOS BANCARIOS
ledgers,null,REAJUSTE MONETARIO  UPAC,53-05-10-0001</br></br></br>,0.00,0,0,0,REAJUSTE MONETARIO  UPAC
ledgers,null,COMISIONES,53-05-15-0001</br></br></br>,0.00,0,0,0,COMISIONES
ledgers,null,INTERESES,53-05-20-0001</br></br></br>,0.00,0,0,0,INTERESES
ledgers,null,DIFERENCIA EN CAMBIO,53-05-25-0001</br></br></br>,0.00,0,0,0,DIFERENCIA EN CAMBIO
ledgers,null,GASTOS EN NEGOCIACION CERTIFICADOS DE CAMBIO,53-05-30-0001</br></br></br>,0.00,0,0,0,GASTOS EN NEGOCIACION CERTIFICADOS DE CAMBIO
ledgers,null,DESCUENTOS COMERCIALES CONDICIONADOS,53-05-35-0001</br></br></br>,0.00,0,0,0,DESCUENTOS COMERCIALES CONDICIONADOS
ledgers,null,GASTOS MANEJO Y EMISION DE BONOS,53-05-40-0001</br></br></br>,0.00,0,0,0,GASTOS MANEJO Y EMISION DE BONOS
ledgers,null,PRIMA AMORTIZADA,53-05-45-0001</br></br></br>,0.00,0,0,0,PRIMA AMORTIZADA
ledgers,null,OTROS,53-05-95-0001</br></br></br>,0.00,0,0,0,OTROS
ledgers,null,IMPUESTO DE RENTA Y COMPLEMENTARIOS.,54-05-05-0001</br></br></br>,0.00,0,0,0,IMPUESTO DE RENTA Y COMPLEMENTARIOS.
ledgers,null,GANANCIAS Y PERDIDAS,59-05-05-0001</br></br></br>,0.00,0,0,0,GANANCIAS Y PERDIDAS
ledgers,null,COSTOS DE MERCANCIA EXCENTAS,61-35-01-0001</br></br></br>,0.00,0,0,0,COSTOS DE MERCANCIA EXCENTAS
ledgers,null,COSTOS DE MERCANCIA EXCLUIDAS,61-35-01-0002</br></br></br>,0.00,0,0,0,COSTOS DE MERCANCIA EXCLUIDAS
ledgers,null,COSTOS DE MERCANCIA IVA 19%,61-35-01-0003</br></br></br>,0.00,0,0,0,COSTOS DE MERCANCIA IVA 19%
ledgers,null,COSTOS DE MERCANCIA IVA 5%,61-35-01-0004</br></br></br>,0.00,0,0,0,COSTOS DE MERCANCIA IVA 5%
